46.872862195121954, -2.9569337979094
47.40229268292683, -3.378397212543547
47.931031707317075, -2.5354703832752534
47.799653658536585, -4.22132404181184
48.46069268292683, -3.378397212543547
48.98989268292683, -3.378397212543547
49.51909268292683, -3.378397212543547
50.04875365853659, -4.22132404181184
49.9173756097561, -5.907177700348427
50.57841463414634, -5.064250871080134
50.84416707317074, -7.171567944250867
51.373136585365856, -6.750104529616721
51.94628292682927, -6.469128919860609
52.42969268292683, -3.378397212543547
52.2987756097561, -5.907177700348427
52.95797073170732, -1.69254355400696
52.827053658536585, -4.22132404181184
53.487170731707316, -1.69254355400696
54.01637073170731, -1.69254355400696
54.54649268292683, -3.378397212543547
54.81224512195122, -5.48571428571428
55.34121463414634, -5.064250871080134
55.87041463414634, -5.064250871080134
56.399614634146346, -5.064250871080134
56.92881463414635, -5.064250871080134
57.458014634146345, -5.064250871080134
57.98721463414634, -5.064250871080134
58.516414634146344, -5.064250871080134
59.04561463414635, -5.064250871080134
59.57389268292683, -3.378397212543547
60.10309268292683, -3.378397212543547
60.63229268292683, -3.378397212543547
61.161492682926834, -3.378397212543547
61.73463902439025, -3.097421602787435
62.218970731707316, -1.69254355400696
62.74817073170732, -1.69254355400696
63.27737073170732, -1.69254355400696
63.80657073170732, -1.69254355400696
64.0723231707317, -3.7998606271776936
64.60129268292684, -3.378397212543547
65.13049268292683, -3.378397212543547
65.65969268292683, -3.378397212543547
66.18889268292683, -3.378397212543547
66.71809268292682, -3.378397212543547
67.24729268292683, -3.378397212543547
67.77649268292683, -3.378397212543547
68.30523170731708, -2.5354703832752534
68.83397073170732, -1.69254355400696
69.36317073170733, -1.69254355400696
69.89283170731707, -2.5354703832752534
70.42249268292683, -3.378397212543547
70.95169268292683, -3.378397212543547
71.48181463414633, -5.064250871080134
72.01101463414633, -5.064250871080134
72.27676707317073, -7.171567944250867
72.80573658536585, -6.750104529616721
73.33539756097562, -7.593031358885014
73.86505853658537, -8.435958188153307
74.17529512195122, -11.245714285714286
74.66116341463416, -12.65059233449476
74.66254634146341, -15.17937282229964
75.19220731707317, -16.022299651567934
75.19359024390243, -18.551080139372814
75.7232512195122, -19.394006968641108
75.5918731707317, -21.079860627177695
76.03425609756097, -23.60864111498256
76.25729146341465, -28.24473867595819
76.3879780487805, -25.294494773519148
76.52373536585367, -31.616445993031363
76.65442195121952, -28.66620209059232
76.79017926829269, -34.988153310104536
76.92086585365854, -32.037909407665495
77.32007073170732, -36.25254355400696
77.85019268292683, -37.93839721254355
77.71881463414634, -39.624250871080136
78.16119756097561, -42.153031358885016
78.64768048780488, -44.6818118466899
78.64906341463416, -47.21059233449478
79.17826341463415, -47.21059233449478
79.7070024390244, -46.36766550522648
80.23574146341463, -45.52473867595819
80.80888780487805, -45.24376306620209
81.29414146341463, -45.52473867595819
81.82380243902439, -46.36766550522648
81.6924243902439, -48.05351916376307
82.35346341463415, -47.21059233449478
82.88266341463415, -47.21059233449478
83.41278536585367, -48.896445993031364
83.94290731707318, -50.58229965156795
84.47210731707318, -50.58229965156795
85.00130731707318, -50.58229965156795
85.53050731707317, -50.58229965156795
86.05970731707318, -50.58229965156795
85.92879024390244, -53.11108013937283
86.58890731707316, -50.58229965156795
87.16113170731707, -48.61547038327524
86.98626829268292, -51.425226480836244
87.68848780487805, -45.24376306620209
87.5136243902439, -48.05351916376307
88.17328048780487, -44.6818118466899
88.0419024390244, -46.36766550522648
88.70340243902439, -46.36766550522648
88.57202439024391, -48.05351916376307
