47.04858880442295, -0.8464132688320802
47.62414409122322, 1.0849481686247202
48.11101174844506, 2.4625017277124925
48.64130891499654, 2.4485694540428256
49.171606081548035, 2.4346371803731586
49.70190324809952, 2.420704906703506
50.232200414651004, 2.406772633033839
50.76249758120249, 2.392840359364186
51.29279474775397, 2.378908085694519
51.823091914305465, 2.364975812024852
52.08686903939184, -0.1445749827228866
52.35338908085694, 2.3510435383551993
52.617166205943334, -0.15850725639255359
52.88322909467865, 1.5029163787145592
53.41306910850035, 0.6547892190739333
53.94336627505183, 0.6408569454042663
54.20737197650311, -1.4515964063580071
54.515111955770564, -4.379405666897043
54.99984623358674, -6.894761575673826
54.86635763648929, -8.559668279198362
55.57403006219765, -7.465984796129931
56.105241534208716, -5.811527297857651
56.63736731167934, -2.4886800276434116
56.45907774706289, -5.2646855563234425
57.12423496890118, -1.1111264685556534
57.698875950241884, -0.848154803040785
58.05316931582585, 0.5328818244643969
58.18391499654457, -2.8073807878369195
58.491426399447136, -6.152287491361463
58.7098692121631, -10.746164478230838
58.97616067726331, -8.667643400138232
58.973874913614374, -12.838617829993098
59.507829302004154, -6.1789910158949795
59.37342639944713, -9.512287491361448
59.81899792674499, -2.8503386316517094
60.30601796821009, -1.1947201105736127
60.83722944022115, 0.45973738769866657
61.36661230131307, -1.2225846579129325
61.630618002764336, -3.315038009675206
62.20548756046994, -2.634968901174858
62.02719799585349, -5.410974429854875
62.73761333794057, 0.6878783690393675
62.559323773324124, -2.088127159640649
63.22448099516241, 2.06543192812714
63.75477816171389, 2.051499654457473
64.28507532826538, 2.03756738078782
64.54908102971666, -0.05488597097443915
65.07960677263304, 0.34827919834137333
65.60944678645474, -0.4998479612992526
66.13928680027644, -1.3479751209398927
66.67004111955771, -0.5277125086385723
67.20079543883898, 0.2925501036627338
67.73109260539046, 0.27861782999306683
68.26138977194195, 0.26468555632341406
68.79260124395302, 1.9191430545956933
68.65865549412578, -0.5799585348998022
69.3228984105045, 1.9052107809260406
69.85273842432619, 1.0570836212854005
69.71924982722875, -0.6078230822391362
70.38212128541811, -0.6252384243262128
70.91150414651003, -2.307560469937812
70.77801554941257, -3.9724671734623485
71.44088700760193, -3.989882515549425
71.3073984105045, -5.6547892190739475
71.97026986869386, -5.672204561161024
71.83678127159641, -7.337111264685575
72.27732411886662, -9.85130615065654
72.49576693158258, -14.44518313752593
72.6299412577747, -11.528984105044927
72.75908690393919, -17.788928818244656
72.8932612301313, -14.872729785763667
73.02240687629578, -21.132674498963397
73.1565812024879, -18.216475466482393
73.28572684865239, -24.476420179682123
73.41990117484451, -21.56022114720112
73.54904682100899, -27.820165860400863
73.68322114720111, -24.903966827919845
73.81236679336558, -31.163911541119575
73.94654111955771, -28.247712508638585
74.0754581893573, -34.92475466482378
74.2098610919143, -31.591458189357326
74.38296959225985, -38.26966136834832
74.20483241188666, -40.767601935038044
74.64537525915688, -43.28179682100898
74.86358949550794, -48.29277125086389
74.99799239806497, -44.95947477539738
75.12759519695922, -50.385224602626124
75.65766378714582, -50.816254319281285
75.65629232895645, -53.31883897719422
76.18613234277817, -54.166966136834844
76.1847608845888, -56.66955079474778
76.71460089841051, -57.517677954388404
76.58111230131306, -59.18258465791294
77.24352660677263, -60.034194885970976
77.77336662059435, -60.88232204561163
78.17063234277816, -61.72696613683485
78.3013780234969, -65.06722874913618
78.56538372494818, -67.15968210089841
78.82893227366966, -70.08633033863168
78.96013510711818, -72.592398064962
79.40357325501037, -69.82335867311679
79.935699032481, -66.50051140290256
79.75740946786456, -69.27651693158259
80.42256668970285, -65.12295784381482
80.9537781617139, -63.46850034554251
81.4836181755356, -64.31662750518316
81.35012957843816, -65.98153420870767
82.01300103662751, -65.99894955079475
81.87951243953006, -67.66385625431928
82.58718486523843, -66.57017277125087
83.07359536973047, -66.02681409813408
83.60343538355218, -66.87494125777474
84.13327539737388, -67.72306841741536
83.99978680027644, -69.38797512093987
84.66311541119558, -68.57119557705599
85.19341257774707, -68.58512785072566
85.72370974429855, -68.59906012439532
86.25400691085002, -68.61299239806499
86.78430407740152, -68.62692467173466
87.31551554941258, -66.97246717346235
87.18156979958536, -69.47156876295784
87.84672702142365, -65.31800967519007
87.71278127159641, -67.81711126468556
88.37702418797512, -65.33194194885974
88.90754993089149, -64.92877677954391
