46.861341252997036, -6.804709495628472
47.07646663238032, -2.3005332734529276
47.336825074427935, 1.0815417267281617
47.21216582037333, -5.66683693943628
47.59718351647555, 4.463616726909251
47.47160426792608, -1.4418717449095482
47.85754195852317, 7.84569172709034
47.7319627099737, 1.9402032552715411
48.386538793072226, 7.0238299783416664
48.915535627621274, 6.2019682295929925
49.445452456665194, 4.537216286498676
49.97352929671938, 4.558244732095659
50.50160613677355, 4.579273177692642
51.029682976827736, 4.600301623289624
51.03244296031234, 2.0716310402526688
51.55775981688192, 4.621330068886607
51.56051980036652, 2.0926594858496514
52.088596640420704, 2.113687931446634
52.09135662390531, -0.4149826515903072
52.62035345845436, -1.2368444003389953
52.62311344193896, -3.7655149833759367
53.19489002049937, -3.461770769197315
53.67742713305759, -2.0376777034906723
54.205503973111774, -2.0166492578936897
54.47184237937603, -4.113360520959333
54.99945922218278, -3.6708869781895146
55.52569607324723, -1.964078143901233
56.097472651807635, -1.6603339297226256
56.580009764365855, -0.23624086401596855
57.10808660442004, -0.21521241841900007
57.634323455484484, 1.4915964158692816
58.16240029553867, 1.5126248614662643
58.42873870180293, -0.5840864015993645
58.95635554460968, -0.14161285882956065
59.484432384663855, -0.12058441323257796
60.054368974234535, 1.8689401896373283
59.88141000919936, -0.9477032733804975
60.53506609780301, 4.978813644035284
60.40580687127407, 2.444885949599083
61.06222294336233, 5.8427322839779094
60.93204372233852, 4.151694783887365
61.59121977791138, 5.0208705352292355
61.85755818417564, 2.9241592721636067
62.38609502147725, 2.523742620587754
62.91509185602631, 1.7018808718390943
63.44316869608049, 1.722909317436077
63.97216553062954, 0.9010475686874031
64.50116236517859, 0.07918581993874341
64.76796076869027, -2.438970540299721
65.07293894373899, 0.3829300341173507
65.55455606180234, 2.649913294169636
66.08171290736166, 3.5138319341122752
66.39282437904282, 0.7164645462250121
66.87750814542241, 0.1738138251251513
67.40374499648685, 1.880622659413433
67.2744857699579, -0.6533050350227683
67.92998184755129, 3.5874314937017147
68.19632025381556, 1.4907202306360858
68.72577708561204, 0.24741338471459073
69.25569391465595, -1.4173385583797256
69.78377075471013, -1.396310112782757
70.31184759476432, -1.3752816671857744
70.83900444032363, -0.5113630272431493
70.70882521929983, -2.202400527333694
71.36800127487268, -1.333224775991809
71.89607811492687, -1.3121963303948263
72.42415495498105, -1.2911678847978436
72.69049336124532, -3.3878791478634867
73.21903019854693, -3.788295799439325
73.08885097752312, -5.47933329952987
73.48766859104836, -7.992232548369074
73.75400699731262, -10.088943811434731
74.28162384011937, -9.646470268664928
74.54796224638363, -11.743181531730556
75.11559884971713, -7.6464314429965015
74.94355987917683, -11.305965100359998
75.63999571179184, -4.253842220016921
75.46703674675668, -7.070485683034761
75.99051361433652, -2.8350062657095236
76.12621280232953, -6.201309931692876
76.12943278306157, -9.151425611902653
76.39715118106812, -12.51247216648676
76.52595041034965, -9.557099374877751
76.7936688083562, -12.918145929461858
76.92936799634921, -16.284449595445224
77.19570640261348, -18.381160858510853
77.72516323440996, -19.624467704432348
77.99150164067422, -21.721178967497977
78.51911848348098, -21.27870542472816
79.04811531803003, -22.100567173476847
79.05087530151462, -24.629237756513803
79.57987213606367, -25.451099505262462
79.44969291503986, -27.14213700535298
79.89251693190295, -29.65328388372579
80.16207531889924, -34.70011082700121
80.43163370589555, -39.7469377702766
80.25836807602876, -42.28261783517924
80.70119209289184, -44.79376471355202
80.52792646302507, -47.32944477845466
80.9267440765503, -49.84234402729386
81.23785554823147, -52.63971141518111
81.72345930910592, -54.02525233062663
81.72621929259051, -56.553922913663584
82.2487761656755, -51.47555330199269
82.12043693364143, -54.85237119077455
82.50913460772311, -48.0934783018116
82.81349945310858, -44.70965093116412
82.82024607940428, -50.89084568969888
83.16923065779085, -48.06719274481539
83.17291063577031, -51.438753522197985
83.30860982376333, -54.80505718818132
83.31228980174279, -58.17661796556392
83.58000819974936, -61.53766452014803
83.58368817772883, -64.90922529753063
83.8514065757354, -68.27027185211473
83.85462655646742, -71.22038753232452
84.38316339376905, -71.62080418390038
84.91308022281297, -73.2855561269947
85.44115706286715, -73.26452768139772
85.9701538974162, -74.08638943014638
85.83997467639239, -75.77742693023693
86.49915073196524, -74.90825117889507
87.02814756651429, -75.73011292764373
87.0309075499989, -78.25878351068069
87.55990438454795, -79.08064525942935
87.42972516352414, -80.77168275951986
87.8722425155556, -83.00186623977744
88.35661961710358, -83.26355356276211
88.7526772471442, -83.24778222856439
88.75543723062881, -85.77645281160135
