46.743279949717156, 1.3856744186046726
46.61985197505197, -0.3021395348837004
47.27997671517671, -0.3021395348837004
47.156548740511525, -1.9899534883720733
47.81237499395638, -1.1460465116278868
48.089320350045924, -3.6777674418604462
48.34047478605618, -1.1460465116278868
48.61742014214572, -3.6777674418604462
48.91115006527099, -0.8647441860464937
49.379480423536236, 2.229581395348859
49.39237588357588, -0.3021395348837004
49.91187870231591, 1.3856744186046726
49.924774162355554, -1.1460465116278868
50.45717244113523, -1.9899534883720733
50.333744466470044, -3.6777674418604462
51.032146207029925, -2.5525581395348595
51.50907353865493, -1.1460465116278868
51.521968998694575, -3.6777674418604462
52.037173330754726, -1.1460465116278868
52.05006879079437, -3.6777674418604462
52.565273122854514, -1.1460465116278868
52.57816858289416, -3.6777674418604462
52.8561373881932, 2.229581395348859
52.96564645360924, -1.9899534883720733
53.3584462602137, 7.293023255813978
53.19960694289996, 3.917395348837232
53.212502402939606, 1.3856744186046726
53.84683622298506, 6.449116279069791
53.864030169704584, 3.0734883720930455
54.19071515737562, -0.5834418604651006
54.255806527099544, 3.917395348837232
54.66907531789392, 0.5417674418604861
54.681970777933564, -1.9899534883720733
55.19717510999371, 0.5417674418604861
55.21007057003335, -1.9899534883720733
55.7252749020935, 0.5417674418604861
55.73817036213315, -1.9899534883720733
56.2533746941933, 0.5417674418604861
56.78147448629309, 0.5417674418604861
57.300977305033115, 2.229581395348859
57.31387276507276, -0.3021395348837004
57.82907709713291, 2.229581395348859
57.841972557172554, -0.3021395348837004
58.3571768892327, 2.229581395348859
58.37007234927235, -0.3021395348837004
58.88957516801237, 1.3856744186046726
58.90247062805202, -1.1460465116278868
59.43057042015181, -1.1460465116278868
59.443465880191454, -3.6777674418604462
60.00124569936662, -0.8647441860464937
59.8395407242663, -3.6777674418604462
60.47817303099163, 0.5417674418604861
60.35904354300633, -1.9899534883720733
61.00627282309142, 0.5417674418604861
61.53437261519122, 0.5417674418604861
62.06247240729101, 0.5417674418604861
62.33941776338055, -1.9899534883720733
62.5905721993908, 0.5417674418604861
62.86751755548034, -1.9899534883720733
63.118671991490594, 0.5417674418604861
63.39561734758013, -1.9899534883720733
63.64677178359038, 0.5417674418604861
64.16627460233042, 2.229581395348859
64.17917006237006, -0.3021395348837004
64.69007590775033, 3.0734883720930455
64.56664793308514, 1.3856744186046726
65.22247418653, 2.229581395348859
65.75057397862979, 2.229581395348859
65.76346943866943, -0.3021395348837004
66.28727074408934, 0.5417674418604861
66.30016620412898, -1.9899534883720733
66.82396750954891, -1.1460465116278868
67.0987636222985, -3.2558139534883566
67.66728965817337, -2.5525581395348595
68.18679247691341, -0.8647441860464937
68.66371980853842, 0.5417674418604861
69.18322262727844, 2.229581395348859
69.19611808731808, -0.3021395348837004
69.71132241937823, 2.229581395348859
69.59219293139293, -0.3021395348837004
70.00218668471692, 5.605209302325605
70.47870463665812, 15.732093023255835
70.45618875404921, 11.512558139534903
70.47338270076875, 8.136930232558164
70.35425321278345, 5.605209302325605
70.63856740318136, 27.546790697674446
70.65576134990087, 24.1711627906977
70.67295529662042, 20.795534883720954
70.85103545907266, 37.673674418604676
70.86822940579219, 34.29804651162793
70.88542335251171, 30.922418604651188
70.82217419136488, 17.41990697674421
70.83936813808441, 14.044279069767462
70.85226359812405, 11.512558139534903
71.06350351496397, 47.800558139534914
71.08069746168351, 44.42493023255817
71.09789140840303, 41.04930232558142
71.03464224725619, 27.546790697674446
71.05183619397573, 24.1711627906977
71.37913525117246, 37.673674418604676
71.39632919789199, 34.29804651162793
71.45957835903883, 47.800558139534914
71.61309574046318, 43.58102325581398
71.63028968718271, 40.205395348837236
71.72158135666972, 30.922418604651188
71.69906547406083, 26.70288372093026
71.57563749939564, 25.015069767441886
71.78380706860708, 35.9858604651163
71.98460780351013, 22.483348837209327
72.00180175022965, 19.10772093023258
72.01899569694918, 15.732093023255835
72.03404040032876, 12.778418604651186
72.082244858096, 29.23460465116282
72.09943880481555, 25.858976744186073
72.36144180244645, 8.98083720930235
72.33892591983755, 4.761302325581418
72.21549794517236, 3.0734883720930455
72.40647356766425, 17.41990697674421
72.4236675143838, 14.044279069767462
72.66847656529517, 0.5417674418604861
72.50533876130154, -1.9899534883720733
72.7307022772325, 5.605209302325605
72.91430906541603, -4.521674418604633
73.16546350142629, -1.9899534883720733
73.23956122419378, -7.897302325581379
73.52940204032296, -12.960744186046497
73.59162775226031, -7.897302325581379
73.77523454044383, -18.024186046511616
73.79242848716336, -21.399813953488362
73.87287159502972, -11.272930232558124
73.89006554174927, -14.64855813953487
74.1176806459411, -24.775441860465108
74.0951647633322, -28.994976744186033
74.17990635787845, -19.71199999999999
74.3807070927815, -33.21451162790696
74.39790103950104, -36.590139534883704
74.61036909539234, -26.46325581395348
74.62756304211187, -29.838883720930227
74.67914488227046, -39.96576744186045
74.9088068848813, -33.21451162790696
74.92600083160083, -36.590139534883704
75.1480893100614, -19.71199999999999
75.12557342745248, -23.931534883720914
75.14276737417202, -27.30716279069766
75.02363788618672, -29.838883720930227
75.32514602330416, -11.272930232558124
75.34233997002369, -14.64855813953487
75.57630045931441, -8.741209302325565
75.49155886476817, -18.024186046511616
75.50875281148768, -21.399813953488362
75.90585110477203, -12.960744186046497
76.39424106754339, -13.804651162790684
76.40713652758303, -16.336372093023243
76.93523631968283, -16.336372093023243
77.46333611178262, -16.336372093023243
78.02541441763768, -14.367255813953477
77.86370944253734, -17.180279069767423
78.50234174926268, -12.960744186046497
78.38321226127738, -15.49246511627905
79.03044154136248, -12.960744186046497
79.55854133346226, -12.960744186046497
79.43941184547695, -15.49246511627905
80.0780441522023, -11.272930232558124
80.09093961224193, -13.804651162790684
80.65015226031039, -11.272930232558124
80.62763637770149, -15.49246511627905
80.5042084030363, -17.180279069767423
80.95718702315911, -19.71199999999999
80.79404921916549, -22.24372093023254
81.01941273509645, -14.64855813953487
81.20301952327998, -24.775441860465108
81.21806422665958, -27.729116279069757
81.3178505245854, -21.399813953488362
81.54546562877724, -31.526697674418585
81.38232782478363, -34.05841860465115
81.73971628873954, -26.46325581395348
81.65927318087319, -36.590139534883704
82.03058055407823, -23.087627906976735
82.01666164482907, -28.994976744186033
81.90612913020354, -33.21451162790696
82.2248312140405, -18.024186046511616
82.47168716337089, -14.64855813953487
82.37405010878499, -21.399813953488362
82.38694556882463, -23.931534883720914
82.75078176280036, -17.60223255813952
82.99978695547068, -14.64855813953487
83.27673231156021, -17.180279069767423
83.52788674757046, -14.64855813953487
83.67280715563506, -17.180279069767423
84.09856202678529, -14.367255813953477
84.5754893584103, -12.960744186046497
84.58838481844992, -15.49246511627905
85.1461646376251, -12.679441860465104
85.62309196925011, -11.272930232558124
85.50396248126481, -13.804651162790684
86.19376724846492, -10.991627906976731
86.67069458008993, -9.585116279069751
86.68359004012956, -12.116837209302311
87.19879437218972, -9.585116279069751
87.47359048493932, -11.694883720930214
87.58627224290478, -7.897302325581379
87.7526850843688, -14.64855813953487
87.76987903108832, -18.024186046511616
87.86751608567423, -11.272930232558124
88.09513118986607, -21.399813953488362
87.93199338587245, -23.931534883720914
88.15735690180341, -16.336372093023243
88.34096368998695, -26.46325581395348
88.35815763670647, -29.838883720930227
88.45579469129237, -23.087627906976735
88.63510299279602, -32.37060465116278
88.75423248078131, -29.838883720930227
71.22325581395347, 49.48837209302329
53.43189092491417, 10.976744186046538
